\BOOKMARK [1][-]{section.1}{Sección}{}% 1
\BOOKMARK [2][-]{subsection.1.1}{Subsección}{section.1}% 2
\BOOKMARK [3][-]{subsubsection.1.1.1}{Subsubsección}{subsection.1.1}% 3
\BOOKMARK [4][-]{paragraph.1.1.1.1}{Párrafo}{subsubsection.1.1.1}% 4
\BOOKMARK [1][-]{section.2}{Sección}{}% 5
\BOOKMARK [0][-]{part.1}{I\040Anexos}{}% 6
\BOOKMARK [1][-]{Anexo.1.Alph1}{Título Anexo}{part.1}% 7
