\boolfalse {citerequest}\boolfalse {citetracker}\boolfalse {pagetracker}\boolfalse {backtracker}\relax 
\defcounter {refsection}{0}\relax 
\select@language {spanish}
\contentsline {section}{\numberline {1}Sección}{2}{section.1}
\contentsline {subsection}{\numberline {1.1}Subsección}{2}{subsection.1.1}
\contentsline {subsubsection}{\numberline {1.1.1}Subsubsección}{2}{subsubsection.1.1.1}
\contentsline {paragraph}{\numberline {1.1.1.1}Párrafo}{2}{paragraph.1.1.1.1}
\contentsline {section}{\numberline {2}Sección}{5}{section.2}
\contentsline {part}{I\hspace {1em}Anexos}{12}{part.1}
\contentsline {section}{\numberline {A}Título Anexo}{12}{Anexo.1.Alph1}
